NUM,LATENCY
1,269.66995
2,135.9016
3,0.00913
4,0.00281
5,62.711221
6,0.009025
7,0.002632
8,0.00232
9,0.00233
10,0.002517
11,0.002322
12,0.002352
13,0.002413
14,0.00244
15,0.002553
16,0.002606
17,0.002503
18,0.00244
19,0.002337
20,0.00628
21,0.002942
22,0.002343
23,17.777486
24,168.700726
25,0.005665
26,0.002603
27,0.002455
28,73.559463
29,0.009241
30,0.002509
31,0.002197
32,0.002338
33,0.002208
34,202.192936
35,0.004872
36,0.002518
37,0.002433
38,0.002196
39,0.00234
40,0.00285
41,0.002642
42,0.002425
43,0.002224
44,0.002458
45,0.002347
46,0.002439
47,0.002328
48,0.008796
49,0.0029
50,0.002423
51,0.00247
52,0.002323
53,0.002498
54,0.002451
55,0.002279
56,0.002385
57,19.475044
58,55.13127
59,0.009376
60,0.013497
61,0.017172
62,0.014501
63,0.006734
64,0.004827
65,0.004192
66,0.017887
67,0.006519
68,0.002518
69,0.002072
70,0.002444
71,0.002301
72,0.00217
73,36.082559
74,0.015759
75,0.003637
76,0.007086
77,0.004274
78,41.480892
79,0.009838
80,0.005369
81,0.008115
82,0.010845
83,0.035585
84,0.004629
85,0.004251
86,0.003783
87,0.006912
88,0.004341
89,71.866889
90,0.010482
91,0.01458
92,0.006452
93,0.005596
94,0.004965
95,0.018866
96,0.004778
97,0.005602
98,0.003957
99,0.034157
100,0.034089
101,0.01522
102,0.005315
103,0.031151
104,0.021883
105,0.004877
106,0.01793
107,0.004627
108,0.02134
109,35.365679
110,0.008137
111,0.003879
112,0.00346
113,0.014117
114,0.00462
115,0.004469
116,0.00516
117,0.003814
118,0.004485
119,0.00414
120,0.003809
121,0.006163
122,0.002318
123,0.002145
124,0.002666
125,0.002704
126,0.00272
127,109.796824
128,0.005637
129,0.004295
130,0.004248
131,0.006589
132,0.005102
133,0.004705
134,0.004393
135,0.027848
136,0.004595
137,0.012881
138,0.012358
139,0.006001
140,0.004438
141,0.004203
142,0.008115
143,0.003709
144,0.003634
145,131.066014
146,0.022978
147,0.01002
148,0.004208
149,0.006589
150,0.01436
151,0.003907
152,0.003644
153,0.003937
154,0.006108
155,0.003121
156,0.009609
157,0.00478
158,0.003745
159,0.00666
160,0.007028
161,0.00307
162,0.003
163,0.00281
164,0.003454
165,0.002745
166,0.006277
167,0.00342
168,0.002902
169,0.002436
170,0.003353
171,0.002205
172,0.002234
173,0.026218
174,0.015077
175,0.006259
176,0.002485
177,0.002913
178,126.986188
179,0.009926
180,0.003798
181,0.014758
182,0.008097
183,0.004032
184,0.014936
185,0.006786
186,0.004296
187,0.003645
188,0.004429
189,0.003567
190,0.006148
191,0.003415
192,0.003564
193,0.017934
194,0.003902
195,0.003687
196,0.011282
197,0.004244
198,0.015777
199,0.003977
200,0.008359
201,0.00383
202,0.00408
203,0.003884
204,0.004683
205,0.009687
206,0.088826
207,0.021968
208,0.004662
209,0.004317
210,0.003686
211,0.018631
212,0.004817
213,0.003968
214,0.013047
215,0.004886
216,0.004367
217,0.003834
218,0.018348
219,0.004236
220,0.003816
221,18.725597
222,0.010962
223,0.013054
224,133.519507
225,0.009847
226,0.004663
227,0.004173
228,95.216229
229,0.006242
230,0.00458
231,0.013229
232,0.005472
233,0.007331
234,0.006737
235,0.004205
236,0.004268
237,0.010135
238,0.024549
239,0.004316
240,0.004003
241,0.004088
242,0.016149
243,0.005099
244,0.003799
245,0.00315
246,0.003881
247,0.00282
248,0.002911
249,0.018305
250,0.004244
251,0.003918
252,0.013009
253,0.004547
254,0.004551
255,0.006471
256,0.004546
257,0.004047
258,0.003998
259,0.003934
260,0.012816
261,0.004617
262,0.018558
263,0.003884
264,0.003631
265,0.005019
266,0.011563
267,0.003703
268,0.002603
269,0.003606
270,0.004032
271,0.0039
272,0.004059
273,0.0066
274,0.014608
275,0.004335
276,0.003702
277,20.730758
278,0.01299
279,20.103474
280,0.006125
281,0.004569
282,0.004349
283,0.011112
284,0.015047
285,71.561152
286,0.005414
287,0.002391
288,0.002244
289,0.003598
290,0.003837
291,17.863643
292,0.005791
293,0.004595
294,0.004187
295,0.01623
296,0.011509
297,0.005166
298,0.00698
299,0.004778
300,21.321603
301,0.016334
302,0.020215
303,0.01202
304,0.024931
305,0.004062
306,0.007847
307,70.233438
308,0.017279
309,0.004177
310,0.003755
311,0.00681
312,0.009128
313,0.00394
314,0.004541
315,0.003443
316,0.003943
317,0.003791
318,72.940625
319,0.005816
320,0.004157
321,0.012392
322,0.004305
323,0.007572
324,0.007743
325,0.009288
326,0.01819
327,0.004481
328,0.003655
329,0.018598
330,0.004529
331,0.00394
332,0.00395
333,0.008521
334,0.002747
335,0.0042
336,0.004146
337,0.00427
338,0.003925
339,0.006357
340,0.003112
341,0.003383
342,103.406548
343,0.024353
344,0.023215
345,36.599665
346,0.012103
347,0.004375
348,0.003005
349,0.003753
350,0.004127
351,0.003861
352,0.007222
353,0.007033
354,0.004529
355,0.004057
356,0.003537
357,0.013884
358,0.002449
359,0.016684
360,0.004556
361,16.946516
362,0.009779
363,0.004604
364,0.003878
365,0.004418
366,0.013972
367,0.01062
368,0.002704
369,0.002385
370,0.002242
371,0.00224
372,0.002265
373,0.002326
374,0.002283
375,0.00232
376,0.002473
377,35.270499
378,0.007403
379,0.003971
380,0.003374
381,48.815995
382,0.004735
383,0.007918
384,0.003489
385,0.010019
386,0.012015
387,0.003833
388,0.011797
389,18.694863
390,0.006193
391,133.328496
392,0.010525
393,0.020723
394,18.048554
395,0.004784
396,0.00382
397,0.00671
398,0.010894
399,0.004705
400,0.008172
401,0.003552
402,0.003229
403,0.004571
404,0.003582
405,0.020429
406,0.004101
407,0.00512
408,0.003473
409,0.010062
410,0.004426
411,0.003692
412,0.003768
413,0.004163
414,0.012749
415,0.00429
416,0.006458
417,0.002622
418,0.002117
419,0.003971
420,33.85806
421,0.007733
422,0.003975
423,0.013421
424,16.466654
425,0.006328
426,0.021623
427,17.232526
428,0.00934
429,0.017202
430,0.004349
431,0.003636
432,0.015095
433,0.002857
434,0.002715
435,0.016702
436,17.2442
437,0.009612
438,0.003499
439,0.003835
440,41.235317
441,0.005799
442,0.004471
443,17.492095
444,0.007585
445,0.002543
446,0.002308
447,28.330152
448,0.029766
449,0.011597
450,0.004387
451,72.307118
452,0.009732
453,0.004495
454,0.004153
455,0.003464
456,0.002948
457,0.003724
458,0.003265
459,0.011305
460,1.933549
461,0.021097
462,0.006653
463,0.012852
464,0.006983
465,0.004945
466,18.906317
467,0.009895
468,0.002612
469,0.004653
470,0.004186
471,0.003725
472,0.003808
473,0.012487
474,0.010797
475,0.004269
476,0.003982
477,0.004324
478,0.004467
479,18.834889
480,0.017007
481,0.012786
482,0.002682
483,0.002241
484,0.003805
485,0.00906
486,0.00898
487,0.003426
488,19.140654
489,17.741329
490,0.008874
491,80.090701
492,0.008542
493,0.002585
494,0.002968
495,0.005207
496,23.704007
497,0.005538
498,0.004448
499,0.004502
500,0.004022
501,0.011629
502,0.0052
503,0.004252
504,0.006253
505,0.003975
506,0.003881
507,0.012496
508,0.003783
509,0.006075
510,0.002503
511,0.012738
512,0.003898
513,0.003128
514,0.002859
515,57.068141
516,0.009904
517,0.002545
518,0.002205
519,0.00274
520,0.002517
521,0.003342
522,0.008454
523,0.003037
524,0.012782
525,0.00385
526,0.003531
527,0.010211
528,59.269665
529,0.019581
530,0.004502
531,24.925341
532,0.005417
533,0.004604
534,0.011704
535,0.010278
536,0.002593
537,0.004145
538,0.004128
539,0.016971
540,0.004008
541,18.201752
542,0.006375
543,0.002625
544,0.014476
545,0.004193
546,0.010449
547,63.590773
548,0.010558
549,0.011841
550,0.003771
551,0.004233
552,0.004209
553,0.00342
554,0.013322
555,0.003589
556,0.009685
557,0.009834
558,0.003937
559,0.006066
560,0.00444
561,0.003914
562,0.005442
563,0.016293
564,0.006132
565,0.005075
566,0.013473
567,0.011787
568,0.005084
569,17.116891
570,0.010288
571,0.004726
572,52.872952
573,0.024401
574,0.010503
575,0.015244
576,0.003442
577,0.002554
578,0.014667
579,0.003927
580,0.004003
581,0.003559
582,0.003807
583,0.016079
584,39.901674
585,0.011672
586,0.004955
587,0.006772
588,0.012649
589,0.006024
590,0.009044
591,0.022346
592,0.01345
593,0.003701
594,0.013718
595,0.004256
596,16.806264
597,0.015104
598,0.004433
599,0.016915
600,0.003101
601,0.004105
602,0.003578
603,19.274975
604,0.006994
605,0.002779
606,0.00402
607,0.004368
608,0.018327
609,0.004237
610,90.828567
611,0.016072
612,0.004334
613,0.003071
614,0.003511
615,0.003771
616,0.004038
617,0.007225
618,0.013573
619,0.004052
620,0.002985
621,0.003915
622,0.003789
623,0.007468
624,68.456086
625,0.007779
626,0.002848
627,0.002993
628,0.002197
629,19.856391
630,0.010264
631,0.004068
632,0.004395
633,0.003805
634,0.00402
635,0.005057
636,0.012201
637,0.003221
638,0.004587
639,0.004137
640,0.004496
641,0.011935
642,0.004157
643,38.923175
644,0.008567
645,0.004052
646,0.017673
647,0.004437
648,0.003692
649,0.00383
650,18.045174
651,0.021056
652,0.025812
653,53.962541
654,0.00989
655,0.00275
656,0.004306
657,0.005074
658,0.004163
659,0.004185
660,0.006467
661,0.004005
662,0.003093
663,0.003843
664,0.00379
665,0.011938
666,0.009396
667,0.018946
668,0.004136
669,97.983693
670,0.015971
671,0.004998
672,0.006692
673,0.004663
674,0.004123
675,0.003788
676,0.00653
677,0.004486
678,0.003923
679,0.003632
680,0.00431
681,0.00641
682,0.005355
683,0.004113
684,0.004397
685,0.004583
686,0.019164
687,0.00476
688,0.007919
689,0.003896
690,38.419662
691,0.006845
692,0.013099
693,0.012238
694,0.004369
695,0.003867
696,0.003902
697,0.013594
698,0.004529
699,0.004156
700,0.004098
701,0.003498
702,0.015113
703,0.002935
704,16.364759
705,0.009509
706,4.717488
707,0.005768
708,0.004433
709,0.004579
710,55.066119
711,0.006134
712,0.004667
713,0.00503
714,0.006254
715,0.023724
716,0.022412
717,0.015798
718,0.004365
719,89.289883
720,0.015504
721,0.011646
722,0.003812
723,0.002805
724,0.019421
725,0.007698
726,0.00259
727,0.00427
728,0.00362
729,0.004347
730,0.004227
731,0.003725
732,0.007844
733,0.004428
734,0.003861
735,0.004863
736,16.325566
737,47.872294
738,0.020646
739,0.018277
740,0.022127
741,0.015623
742,0.004826
743,0.004289
744,0.003563
745,0.012341
746,0.012122
747,0.004215
748,0.004049
749,0.00411
750,0.005032
751,0.002696
752,0.002377
753,0.00224
754,39.414418
755,0.028035
756,0.008148
757,0.016938
758,0.00692
759,0.004283
760,0.004273
761,0.004095
762,0.004974
763,0.004685
764,0.005333
765,0.004278
766,0.004401
767,0.00449
768,0.003838
769,0.004052
770,0.003942
771,0.0036
772,0.004155
773,0.002995
774,0.004106
775,0.004107
776,0.002381
777,0.002582
778,0.018561
779,0.014549
780,0.006232
781,0.019715
782,0.017002
783,0.005739
784,0.008286
785,0.004258
786,0.003917
787,0.014152
788,0.006115
789,0.013479
790,0.01437
791,0.006367
792,0.005614
793,0.013525
794,0.017725
795,0.004518
796,0.011851
797,0.004395
798,0.004392
799,0.017916
800,0.006638
801,0.008517
802,0.00408
803,0.004194
804,0.011676
805,0.00499
806,0.00438
807,16.388513
808,0.023175
809,0.024555
810,0.005206
811,78.286968
812,0.009283
813,0.012021
814,0.012723
815,0.003395
816,114.744253
817,0.005536
818,0.002745
819,0.012304
820,0.004163
821,0.004137
822,0.003365
823,0.24864
824,0.004867
825,0.002679
826,0.017295
827,0.003039
828,0.00221
829,0.002435
830,0.003053
831,0.007842
832,0.002966
833,0.00313
834,0.003286
835,0.014474
836,16.976772
837,0.015465
838,63.223347
839,0.018537
840,0.007603
841,0.019127
842,0.005977
843,0.022439
844,0.019861
845,0.008077
846,0.015987
847,0.004822
848,0.007986
849,0.004738
850,0.004444
851,0.006914
852,0.006397
853,0.007018
854,0.007115
855,0.015067
856,0.006887
857,0.012695
858,0.010022
859,126.571707
860,0.010392
861,0.006985
862,0.013452
863,0.00673
864,0.020687
865,0.006948
866,0.009816
867,0.006641
868,0.005915
869,0.012839
870,0.006783
871,16.92062
872,16.991198
873,0.010752
874,0.00701
875,0.007153
876,0.006231
877,0.018202
878,0.012566
879,0.004545
880,0.015206
881,0.02237
882,0.009799
883,0.00422
884,0.016389
885,0.020081
886,38.040065
887,0.005045
888,0.002497
889,153.229297
890,0.0054
891,0.017802
892,0.005369
893,0.01281
894,0.005304
895,0.02216
896,0.00428
897,0.007701
898,0.010855
899,0.004352
900,0.00432
901,0.013211
902,0.004195
903,0.032684
904,0.00419
905,0.003684
906,0.004287
907,0.003906
908,0.006554
909,0.02102
910,0.016052
911,0.003712
912,0.012382
913,0.004862
914,0.016566
915,0.004234
916,0.006219
917,0.004238
918,0.004546
919,17.052955
920,0.008309
921,0.002736
922,0.004458
923,0.00426
924,0.012493
925,0.004107
926,0.006877
927,0.013545
928,0.042655
929,0.003984
930,0.022862
931,0.004484
932,0.003867
933,0.014732
934,0.005404
935,17.705364
936,0.005262
937,0.00434
938,0.004077
939,0.013419
940,0.004219
941,0.015898
942,0.004895
943,0.018063
944,0.004155
945,69.84547
946,0.015628
947,0.005111
948,0.004804
949,0.004246
950,0.007582
951,0.002909
952,0.004318
953,0.003919
954,0.004346
955,0.004041
956,0.014598
957,0.003955
958,36.605845
959,18.010308
960,0.005645
961,0.004199
962,0.013375
963,0.00297
964,0.00341
965,0.014807
966,0.004099
967,0.003816
968,0.00456
969,0.01202
970,0.003079
971,0.003777
972,0.003844
973,27.677789
974,39.75093
975,0.005419
976,0.003917
977,0.004037
978,0.004412
979,0.02514
980,0.009613
981,0.002885
982,0.002726
983,38.235877
984,0.005889
985,0.004275
986,0.014088
987,18.800407
988,0.004977
989,0.004344
990,0.004276
991,0.003958
992,0.004038
993,0.004927
994,0.004631
995,19.287013
996,0.00946
997,0.00259
998,0.002812
999,0.007965
1000,0.004044
1001,0.003879
1002,0.004849
1003,0.004185
1004,0.0041
1005,0.008045
1006,19.80301
1007,0.005707
1008,0.018371
1009,0.010401
1010,0.002803
1011,0.002343
1012,0.002354
1013,0.036784
1014,0.004648
1015,0.002505
1016,0.002242
1017,0.003025
1018,0.001949
1019,0.00222
1020,37.802607
1021,0.009973
1022,0.003315
1023,0.002812
1024,0.002946
