NUM,LATENCY
1,0.373656
2,0.039346
3,0.039429
4,0.040832
5,0.035292
6,0.037148
7,0.052472
8,0.118735
9,0.041531
10,0.035555
11,0.039091
12,0.037809
13,0.038741
14,0.031456
15,0.034556
16,0.034223
17,0.038494
18,0.036207
19,0.036977
20,0.045422
21,0.044743
22,0.035022
23,0.039024
24,0.036599
25,0.03752
26,0.031709
27,0.03757
28,0.030389
29,0.036748
30,0.037426
31,0.035608
32,0.032099
33,0.04901
34,0.03853
35,0.034061
36,36.813951
37,0.035415
38,0.035204
39,0.04612
40,0.036187
41,0.033606
42,0.037556
43,0.035793
44,0.032993
45,0.035337
46,0.040784
47,0.03601
48,0.029991
49,0.028317
50,0.040294
51,0.031207
52,0.043015
53,0.030405
54,0.035259
55,0.048685
56,0.035712
57,0.037912
58,0.028236
59,0.034068
60,0.029167
61,0.045833
62,0.046333
63,0.036976
64,0.032661
65,0.034632
66,0.040194
67,0.033014
68,0.037314
69,0.040342
70,0.035165
71,0.043925
72,0.043985
73,0.036726
74,0.034599
75,0.031909
76,0.035734
77,0.032128
78,0.039375
79,0.040988
80,0.033425
81,0.03915
82,0.039548
83,0.031262
84,0.034037
85,0.045884
86,0.032494
87,0.031984
88,0.043715
89,0.048259
90,0.055534
91,0.040798
92,0.035946
93,0.032422
94,0.031553
95,0.032062
96,0.030251
97,0.035837
98,0.038356
99,0.045872
100,0.036253
101,0.029983
102,0.026217
103,0.050821
104,0.026466
105,0.034788
106,0.03484
107,0.02877
108,0.036359
109,0.023985
110,0.036809
111,0.031138
112,0.039386
113,0.038655
114,0.02676
115,0.034997
116,0.028734
117,0.036588
118,0.032775
119,0.036655
120,0.03011
121,0.028542
122,0.024773
123,0.026304
124,0.037252
125,0.043832
126,0.028539
127,0.036104
128,0.051275
129,0.031982
130,0.024299
131,0.032588
132,0.022358
133,0.033163
134,0.023193
135,0.040877
136,0.036327
137,0.025572
138,0.03209
139,0.027735
140,0.028889
141,0.024982
142,0.031454
143,0.042044
144,0.039907
145,0.027455
146,0.047127
147,0.037014
148,0.040812
149,0.037252
150,0.034509
151,0.026544
152,0.044108
153,0.030016
154,0.024131
155,0.027994
156,0.034527
157,0.031932
158,0.040137
159,0.03258
160,0.03621
161,0.038163
162,0.055851
163,0.027929
164,0.02467
165,0.045499
166,0.047226
167,0.031423
168,0.039002
169,0.040132
170,0.030931
171,0.045797
172,0.040796
173,0.036148
174,36.663442
175,0.036406
176,0.039201
177,0.023765
178,0.066841
179,0.042835
180,0.030761
181,0.03406
182,0.034872
183,0.03615
184,0.037311
185,0.023795
186,0.033704
187,0.02959
188,0.039926
189,0.032412
190,0.027585
191,0.031378
192,0.036289
193,0.026504
194,0.025009
195,0.053189
196,0.026335
197,0.051577
198,0.026528
199,0.027699
200,0.053809
201,0.030104
202,0.031598
203,0.024702
204,0.040168
205,0.042796
206,0.036393
207,0.029604
208,0.036883
209,0.022715
210,0.032907
211,0.034449
212,0.022039
213,0.039173
214,0.032034
215,0.024969
216,0.02566
217,0.026122
218,0.019837
219,0.023775
220,0.022785
221,0.028649
222,0.022246
223,0.067151
224,0.043867
225,0.023916
226,0.026041
227,0.0279
228,0.032159
229,0.032767
230,0.023859
231,0.030173
232,0.027756
233,0.037181
234,0.024596
235,0.035778
236,0.03392
237,0.031233
238,0.038582
239,0.050606
240,0.036198
241,0.045027
242,0.038396
243,0.042073
244,0.04965
245,0.045817
246,0.041349
247,0.02849
248,0.038994
249,0.045634
250,0.03008
251,0.041283
252,0.027917
253,0.024425
254,0.034348
255,0.029464
256,0.032071
257,0.02283
258,0.047015
259,0.023307
260,0.047761
261,0.031962
262,0.045852
263,0.030358
264,0.033981
265,0.037846
266,0.029417
267,0.029346
268,0.029169
269,0.039288
270,0.02859
271,0.029422
272,0.021609
273,0.033891
274,0.036116
275,0.022848
276,0.036321
277,0.023477
278,0.029666
279,0.039929
280,0.045833
281,0.028619
282,0.036127
283,0.033208
284,0.023099
285,0.04472
286,0.025233
287,0.027665
288,0.041967
289,0.040683
290,0.040094
291,0.03742
292,0.026773
293,0.039713
294,0.024858
295,0.035593
296,0.040857
297,0.024893
298,0.040085
299,0.036453
300,0.046144
301,0.03626
302,0.036764
303,0.02378
304,0.030252
305,0.035609
306,0.028052
307,0.043778
308,0.04701
309,0.030222
310,0.024166
311,0.03338
312,0.035706
313,0.042142
314,0.038671
315,0.035709
316,0.025369
317,0.032604
318,0.044349
319,0.031073
320,0.031184
321,0.024967
322,0.031345
323,0.030477
324,0.029993
325,0.024667
326,0.047852
327,0.024006
328,0.030526
329,0.049529
330,0.053826
331,0.036971
332,0.031792
333,0.045267
334,0.108963
335,0.023803
336,0.038003
337,0.040172
338,0.06082
339,0.042042
340,0.03322
341,0.034376
342,0.03227
343,0.033817
344,0.041415
345,0.029127
346,0.030587
347,0.030873
348,0.032498
349,0.028015
350,0.045902
351,0.028396
352,0.031179
353,0.054617
354,0.026971
355,0.047844
356,0.025207
357,0.037978
358,0.020301
359,0.038675
360,0.022351
361,0.036419
362,0.036239
363,0.046185
364,0.049665
365,0.038136
366,0.03393
367,0.039539
368,0.031218
369,0.040471
370,0.033819
371,0.036246
372,0.040128
373,0.045347
374,0.035047
375,0.047113
376,0.03651
377,0.029864
378,0.052812
379,0.026391
380,0.032772
381,0.036327
382,0.044768
383,0.031622
384,0.032388
385,0.035656
386,0.032111
387,0.034773
388,0.033298
389,0.037428
390,0.032351
391,0.026544
392,0.027925
393,0.038097
394,0.035996
395,0.033489
396,0.026928
397,0.036152
398,0.035251
399,0.033374
400,0.036693
401,0.025348
402,0.030709
403,0.029552
404,0.035391
405,0.039066
406,0.024216
407,0.033378
408,0.03356
409,0.027626
410,0.026985
411,0.02214
412,0.040256
413,0.045924
414,0.032503
415,0.030621
416,0.039552
417,0.042892
418,0.028025
419,0.037583
420,0.044633
421,0.037519
422,0.037669
423,0.03204
424,0.030239
425,0.035493
426,0.031361
427,0.029949
428,0.038679
429,0.041081
430,0.03303
431,0.030072
432,0.034398
433,0.027458
434,0.027726
435,0.031151
436,0.057807
437,0.033093
438,0.027063
439,0.033567
440,0.038874
441,0.026426
442,0.034372
443,0.021695
444,0.028759
445,0.045171
446,0.028395
447,0.027837
448,0.033043
449,0.020667
450,0.033353
451,0.023361
452,0.042709
453,0.037764
454,0.037792
455,0.028445
456,0.030087
457,0.038174
458,0.029238
459,0.023064
460,0.037222
461,0.027743
462,0.030945
463,0.020291
464,0.032694
465,0.025487
466,0.03615
467,0.022677
468,0.028785
469,0.031081
470,0.029738
471,0.029991
472,0.025903
473,0.02258
474,0.035568
475,0.03414
476,0.062242
477,0.042165
478,0.044086
479,0.034016
480,0.031404
481,0.056687
482,0.042407
483,0.037274
484,0.047119
485,0.040816
486,0.037843
487,0.0314
488,0.031454
489,0.041045
490,0.036493
491,0.034956
492,0.028537
493,0.037071
494,0.045131
495,0.041494
496,0.055188
497,0.035339
498,0.050828
499,0.047337
500,0.039606
501,0.039067
502,0.042251
503,0.039456
504,0.037545
505,0.042747
506,0.022744
507,0.036
508,0.028227
509,0.042254
510,0.039598
511,0.02908
512,0.04088
